<svg width="24" height="24" version="1.1" viewBox="0 0 24 24" xmlns="http://www.w3.org/2000/svg">
 <path d="m6.191 22.78c-0.5838-0.07025-1.138-0.3028-1.615-0.6778-0.2382-0.1872-0.427-0.3974-1.4-1.559-0.5151-0.6148-0.9726-1.162-1.017-1.217-0.361-0.4461-0.5805-0.9082-0.7071-1.488-0.04828-0.2213-0.04754-0.1273-0.04767-6.062-1.404e-4 -6.223-0.00578-5.752 0.07164-5.953 0.09462-0.2455 0.2764-0.4416 0.5247-0.5659 0.09654-0.04833 0.2559-0.0979 0.3159-0.09826 0.01692-9.9e-5 0.03753-0.00448 0.04579-0.00972 0.01048-0.00666-0.09549-0.1414-0.3505-0.4457-0.3943-0.4705-0.4563-0.5538-0.5183-0.6972-0.06208-0.1434-0.0791-0.2213-0.08565-0.3922-0.00488-0.1266-0.00143-0.1783 0.01795-0.2721 0.1093-0.5286 0.6185-0.9 1.152-0.8404 0.2364 0.02637 0.4634 0.1301 0.6324 0.2889 0.08912 0.08375 1.953 2.293 2.08 2.465 0.1366 0.1855 0.21 0.3921 0.2197 0.6186 0.02315 0.5423-0.3537 1.011-0.886 1.103-0.04648 0.00798-0.08307 0.01845-0.08132 0.02327 0.00173 0.00482 0.1627 0.199 0.3576 0.4315 0.1949 0.2325 0.378 0.456 0.4068 0.4967 0.06986 0.09861 0.1394 0.2447 0.1727 0.3626l0.02715 0.09619 6e-3 4.683c0.0045 3.493 0.00946 4.677 0.0196 4.659 0.02106-0.03725 0.07546-0.1941 0.1043-0.3006l0.02602-0.09619 0.00683-6.625c0.0063-6.059 0.00853-6.634 0.02648-6.733 0.08591-0.4736 0.2025-0.8125 0.3962-1.152 0.4346-0.761 1.157-1.309 2.008-1.525 0.4211-0.1065 0.9107-0.123 1.348-0.04544 0.6811 0.1209 1.324 0.4741 1.805 0.9916 0.1615 0.1739 2.009 2.378 2.139 2.551 0.2592 0.3467 0.4405 0.7118 0.5492 1.106 0.1206 0.4371 0.1148 0.2803 0.1148 3.087 0 1.445 0.0044 2.421 0.01088 2.417 0.01427-0.0088 0.08008-0.1914 0.1129-0.3133l0.02592-0.09619 0.0067-3.451c0.0062-3.155 0.0085-3.46 0.02684-3.565 0.09569-0.5433 0.2365-0.9169 0.4979-1.32 0.2468-0.3811 0.5969-0.7263 0.9828-0.9691 0.7389-0.4648 1.658-0.6051 2.514-0.3839 0.6305 0.1627 1.202 0.5211 1.653 1.037 0.1373 0.1571 1.896 2.255 2.002 2.388 0.3871 0.4864 0.6483 1.128 0.6971 1.713 0.0099 0.1188 0.01254 2.042 0.0098 7.166l-0.0038 7.004-0.02728 0.08794c-0.1158 0.3731-0.3989 0.6502-0.7657 0.7494-0.07608 0.02056-0.1312 0.02613-0.2643 0.02667-0.2015 8.07e-4 -0.3119-0.02376-0.4814-0.1072-0.2214-0.1089-0.2188-0.1061-1.27-1.358-0.5274-0.6282-0.9991-1.195-1.048-1.26-0.1014-0.1331-0.1729-0.2716-0.2126-0.4119l-0.02718-0.09595-0.0062-5.994c-6e-3 -5.841-0.0068-5.992-0.02838-5.946-0.03194 0.06919-0.06536 0.1662-0.09531 0.2765l-0.0261 0.09619-0.0072 3.451c-0.0064 3.11-9e-3 3.461-0.02656 3.559-0.08471 0.4705-0.2023 0.8124-0.396 1.152-0.5756 1.008-1.627 1.62-2.782 1.62-0.5296-2.65e-4 -0.9851-0.1079-1.45-0.3425-0.3876-0.1957-0.7194-0.4545-1.008-0.7858-0.249-0.2862-1.967-2.342-2.056-2.46-0.2585-0.3436-0.4435-0.7151-0.5522-1.109-0.1205-0.4368-0.1147-0.2809-0.1152-3.083-3.311e-4 -2.104-0.00263-2.417-0.01761-2.397-0.01631 0.02156-0.0631 0.1546-0.1104 0.3139-0.02039 0.0687-0.02172 0.388-0.02797 6.691-0.00608 6.174-0.00794 6.627-0.02711 6.735-0.08486 0.48-0.2163 0.8547-0.4189 1.194-0.3311 0.5552-0.789 0.981-1.35 1.255-0.3038 0.1486-0.6193 0.2494-0.9258 0.2959-0.1781 0.027-0.6949 0.03428-0.8772 0.01235z" stroke-width=".01202"/>
 <path d="m5.231 21.59c-0.4165-0.05235-0.7669-0.1603-1.116-0.3438-0.5909-0.3104-1.082-0.8161-1.379-1.419-0.1898-0.3854-0.2822-0.7106-0.325-1.143-0.00928-0.09381-0.01192-1.774-0.00928-5.795l4e-3 -5.663 0.0276-0.09512c0.05928-0.2044 0.1529-0.3618 0.2964-0.4982 0.1985-0.1887 0.4218-0.2843 0.6958-0.298 0.2209-0.01097 0.4397 0.05147 0.6346 0.1813 0.2479 0.165 0.4219 0.4448 0.4627 0.7439 0.00896 0.06556 0.01288 1.764 0.01288 5.622 0 6.045-0.0048 5.615 0.06768 5.838 0.0444 0.1359 0.07992 0.2123 0.143 0.3073 0.1435 0.2161 0.3734 0.3721 0.6276 0.426 0.1074 0.02273 0.34 0.02201 0.4554-0.0016 0.05088-0.01041 0.1389-0.03922 0.1956-0.06404 0.3244-0.1423 0.5213-0.4099 0.6196-0.8422 0.01904-0.08376 0.02088-0.5347 0.02736-6.714l0.0072-6.624 0.02632-0.135c0.09305-0.4779 0.2471-0.8676 0.4878-1.234 0.4282-0.6522 1.071-1.122 1.819-1.328 0.5699-0.1573 1.158-0.1566 1.719 0.0024 1.105 0.3126 1.954 1.185 2.242 2.305 0.02904 0.113 0.06816 0.3431 0.08364 0.4924 0.0072 0.07196 0.01192 1.341 0.012 3.436 3.28e-4 3.656-0.0048 3.419 0.07288 3.653 0.062 0.1875 0.1337 0.3105 0.2567 0.4405 0.1844 0.1949 0.4429 0.3015 0.7312 0.3015 0.5751 0 0.9737-0.3845 1.063-1.025 9e-3 -0.06516 0.01304-1.098 0.01312-3.411 0-3.559-8e-4 -3.481 0.05992-3.756 0.1674-0.7525 0.5542-1.383 1.138-1.855 0.9628-0.778 2.328-0.9211 3.435-0.3603 0.3202 0.1622 0.5603 0.3372 0.8223 0.5993 0.2737 0.2739 0.4482 0.5172 0.6118 0.8531 0.1852 0.3802 0.2789 0.7145 0.3182 1.135 9e-3 0.09709 0.01176 2.209 0.0092 7.11l-4e-3 6.972-0.02728 0.09379c-0.1035 0.3561-0.3583 0.628-0.6932 0.7396-0.2765 0.09218-0.545 0.07444-0.806-0.05331-0.2776-0.1358-0.4821-0.3855-0.5702-0.696l-0.02728-0.09609-0.0064-6.942c-0.0056-6.395-8e-3 -6.948-0.02624-7.02-0.01088-0.04291-0.0368-0.1267-0.0576-0.1862-0.1064-0.3041-0.306-0.5211-0.58-0.6307-0.1337-0.05347-0.2331-0.07148-0.3954-0.07172-0.1719-2.161e-4 -0.2885 0.02217-0.4277 0.08222-0.3241 0.1398-0.5237 0.4105-0.6214 0.8427-0.01872 0.08278-0.02088 0.3592-0.02752 3.543l-0.0072 3.453-0.02616 0.135c-0.09275 0.4788-0.2485 0.8716-0.4925 1.242-0.5926 0.8998-1.59 1.439-2.664 1.439-0.5587 2.89e-4 -1.122-0.1477-1.588-0.4174-0.5436-0.3144-0.9947-0.7892-1.272-1.339-0.116-0.2297-0.2398-0.5836-0.2804-0.8014-0.064-0.3437-0.0588-0.04515-0.06624-3.765l-0.0072-3.435-0.02616-0.1056c-0.09115-0.368-0.2843-0.6323-0.5625-0.7697-0.1499-0.07404-0.233-0.09396-0.4198-0.1005-0.1953-0.0072-0.3153 0.01169-0.4575 0.07092-0.3497 0.1455-0.5656 0.4519-0.6452 0.9155-0.01624 0.09469-0.01832 0.8349-0.0184 6.594-1.44e-4 6.985 0.0032 6.644-0.05992 6.926-0.1419 0.6382-0.4346 1.178-0.8821 1.627-0.473 0.4746-1.102 0.7953-1.758 0.8961-0.215 0.03306-0.6641 0.04163-0.8641 0.01641zm-1.986-15.79c-0.3954-0.08811-0.7057-0.386-0.8119-0.7796-0.03704-0.1371-0.03696-0.3915 7.2e-5 -0.5285 0.1077-0.398 0.421-0.6975 0.8176-0.7817 0.1025-0.02177 0.3107-0.02153 0.4256 4.723e-4 0.3684 0.07052 0.6835 0.3521 0.8001 0.715 0.074 0.2302 0.07376 0.4311-8e-4 0.6634-0.1073 0.3341-0.3928 0.6031-0.7445 0.7012-0.09869 0.02754-0.3808 0.03314-0.4861 0.00969z" fill="#fff" stroke-width=".01201"/>
</svg>
