v 20130925 2
C 15400 40000 1 0 0 lm324-1.sym
{
T 16225 40150 5 8 0 0 0 0 1
device=LM324
T 15600 40900 5 10 1 1 0 0 1
refdes=U5
T 15400 40000 5 10 0 0 0 0 1
slot=1
T 15400 40000 5 10 0 0 0 0 1
footprint=DIP16
}
C 11800 43600 1 180 0 resistor-2.sym
{
T 11400 43250 5 10 0 0 180 0 1
device=RESISTOR
T 11100 43700 5 10 1 1 0 0 1
refdes=R1
T 11100 43200 5 10 1 1 0 0 1
value=10K
T 11800 43600 5 10 0 0 0 0 1
footprint=0.125W_Carbon_Resistor
}
C 14300 40300 1 90 0 resistor-2.sym
{
T 13950 40700 5 10 0 0 90 0 1
device=RESISTOR
T 14600 40900 5 10 1 1 180 0 1
refdes=R3
T 14700 40700 5 10 1 1 180 0 1
value=10K
T 14300 40300 5 10 0 0 0 0 1
footprint=0.125W_Carbon_Resistor
}
C 11000 39400 1 0 0 capacitor-1.sym
{
T 11200 40100 5 10 0 0 0 0 1
device=CAPACITOR
T 11300 39900 5 10 1 1 0 0 1
refdes=C1
T 11200 40300 5 10 0 0 0 0 1
symversion=0.1
T 11000 39400 5 10 0 0 0 0 1
footprint=CK06_type_capacitor
}
N 9900 41800 9100 41800 4
N 9100 39600 9100 41800 4
N 9100 39600 11000 39600 4
N 13400 42400 14800 42400 4
N 14800 39600 14800 42400 4
N 11900 39600 14800 39600 4
N 13400 42100 14200 42100 4
N 14200 42100 14200 41200 4
N 13400 41200 13800 41200 4
N 13400 40900 13800 40900 4
N 13400 40600 13800 40600 4
N 13400 40300 13800 40300 4
N 9900 41500 9500 41500 4
N 9500 39200 9500 42400 4
N 9900 42400 9500 42400 4
N 13800 39200 13800 41200 4
N 14200 40000 14200 40300 4
C 13300 43600 1 180 0 resistor-2.sym
{
T 12900 43250 5 10 0 0 180 0 1
device=RESISTOR
T 12600 43700 5 10 1 1 0 0 1
refdes=R2
T 12600 43200 5 10 1 1 0 0 1
value=10K
T 13300 43600 5 10 0 0 0 0 1
footprint=0.125W_Carbon_Resistor
}
N 13300 43500 14000 43500 4
N 14000 43500 14000 41800 4
N 14000 41800 13400 41800 4
N 11800 43500 12400 43500 4
N 9900 42100 9700 42100 4
N 10900 43500 9700 43500 4
N 15400 40200 15300 40200 4
N 15300 40200 15300 39600 4
N 15300 39600 16800 39600 4
N 16800 39600 16800 40400 4
C 18900 41200 1 90 0 diode-1.sym
{
T 18300 41600 5 10 0 0 90 0 1
device=DIODE
T 19300 41700 5 10 1 1 180 0 1
refdes=D1
T 18900 41200 5 10 0 0 0 0 1
footprint=DIODE_LAY 400
}
C 17900 40500 1 180 0 resistor-2.sym
{
T 17500 40150 5 10 0 0 180 0 1
device=RESISTOR
T 17200 40600 5 10 1 1 0 0 1
refdes=R4
T 17200 40100 5 10 1 1 0 0 1
value=1.21K
T 17900 40500 5 10 0 0 0 0 1
footprint=0.125W_Carbon_Resistor
}
N 16400 40400 17000 40400 4
C 7900 42400 1 270 0 voltage-3.sym
{
T 8600 42200 5 8 0 0 270 0 1
device=VOLTAGE_SOURCE
T 7500 41900 5 10 1 1 0 0 1
refdes=V1
T 7900 42400 5 10 0 0 0 0 1
footprint=MTA_156 2
}
N 9700 42100 9700 43500 4
N 15400 40600 15300 40600 4
N 15300 40600 15300 43100 4
N 15300 43100 9700 43100 4
N 12100 43500 12100 44000 4
N 8100 44000 15900 44000 4
N 8100 44000 8100 42400 4
N 15900 44000 15900 40800 4
N 15900 42400 18700 42400 4
N 8100 41500 8100 39200 4
N 15900 40000 15900 39200 4
N 13400 41500 14500 41500 4
N 14500 41500 14500 44000 4
N 17900 40400 18200 40400 4
N 18700 40900 18700 41200 4
N 8100 39200 18700 39200 4
N 18700 39200 18700 39900 4
N 18700 42100 18700 42400 4
N 14200 40000 13800 40000 4
C 15400 34900 1 0 0 lm324-1.sym
{
T 16225 35050 5 8 0 0 0 0 1
device=LM324
T 15400 34900 5 10 0 0 0 0 1
slot=2
T 15400 34900 5 10 0 0 0 0 1
footprint=DIP16
T 15600 35800 5 10 1 1 0 0 1
refdes=U5
}
C 11800 38500 1 180 0 resistor-2.sym
{
T 11400 38150 5 10 0 0 180 0 1
device=RESISTOR
T 11800 38500 5 10 0 0 0 0 1
footprint=0.125W_Carbon_Resistor
T 11100 38600 5 10 1 1 0 0 1
refdes=R5
T 11100 38100 5 10 1 1 0 0 1
value=10K
}
C 14300 35200 1 90 0 resistor-2.sym
{
T 13950 35600 5 10 0 0 90 0 1
device=RESISTOR
T 14300 35200 5 10 0 0 0 0 1
footprint=0.125W_Carbon_Resistor
T 14600 35800 5 10 1 1 180 0 1
refdes=R7
T 14700 35600 5 10 1 1 180 0 1
value=10K
}
C 11000 34300 1 0 0 capacitor-1.sym
{
T 11200 35000 5 10 0 0 0 0 1
device=CAPACITOR
T 11200 35200 5 10 0 0 0 0 1
symversion=0.1
T 11000 34300 5 10 0 0 0 0 1
footprint=CK06_type_capacitor
T 11300 34800 5 10 1 1 0 0 1
refdes=C2
}
N 9900 36700 9100 36700 4
N 9100 34500 9100 36700 4
N 9100 34500 11000 34500 4
N 13400 37300 14800 37300 4
N 14800 34500 14800 37300 4
N 11900 34500 14800 34500 4
N 13400 37000 14200 37000 4
N 14200 37000 14200 36100 4
N 13400 36100 13800 36100 4
N 13400 35800 13800 35800 4
N 13400 35500 13800 35500 4
N 13400 35200 13800 35200 4
N 9900 36400 9500 36400 4
N 9500 34100 9500 37300 4
N 9900 37300 9500 37300 4
N 13800 34100 13800 36100 4
N 14200 34900 14200 35200 4
C 13300 38500 1 180 0 resistor-2.sym
{
T 12900 38150 5 10 0 0 180 0 1
device=RESISTOR
T 13300 38500 5 10 0 0 0 0 1
footprint=0.125W_Carbon_Resistor
T 12600 38600 5 10 1 1 0 0 1
refdes=R6
T 12600 38100 5 10 1 1 0 0 1
value=10K
}
N 13300 38400 14000 38400 4
N 14000 38400 14000 36700 4
N 14000 36700 13400 36700 4
N 11800 38400 12400 38400 4
N 9900 37000 9700 37000 4
N 10900 38400 9700 38400 4
N 15400 35100 15300 35100 4
N 15300 35100 15300 34500 4
N 15300 34500 16800 34500 4
N 16800 34500 16800 35300 4
C 18900 36100 1 90 0 diode-1.sym
{
T 18300 36500 5 10 0 0 90 0 1
device=DIODE
T 18900 36100 5 10 0 0 0 0 1
footprint=DIODE_LAY 400
T 19300 36600 5 10 1 1 180 0 1
refdes=D2
}
C 17900 35400 1 180 0 resistor-2.sym
{
T 17500 35050 5 10 0 0 180 0 1
device=RESISTOR
T 17900 35400 5 10 0 0 0 0 1
footprint=0.125W_Carbon_Resistor
T 17200 35500 5 10 1 1 0 0 1
refdes=R8
T 17200 35000 5 10 1 1 0 0 1
value=1.21K
}
N 16400 35300 17000 35300 4
C 7900 37400 1 270 0 voltage-3.sym
{
T 8600 37200 5 8 0 0 270 0 1
device=VOLTAGE_SOURCE
T 7900 37400 5 10 0 0 0 0 1
footprint=MTA_156 2
T 7500 36900 5 10 1 1 0 0 1
refdes=V1
}
N 9700 37000 9700 38400 4
N 15400 35500 15300 35500 4
N 15300 35500 15300 38000 4
N 15300 38000 9700 38000 4
N 12100 38400 12100 38900 4
N 8100 38900 15900 38900 4
N 8100 38900 8100 37400 4
N 15900 38900 15900 35700 4
N 15900 37300 18700 37300 4
N 8100 36500 8100 34100 4
N 15900 34900 15900 34100 4
N 13400 36400 14500 36400 4
N 14500 36400 14500 38900 4
N 17900 35300 18200 35300 4
N 18700 35800 18700 36100 4
N 8100 34100 18700 34100 4
N 18700 34100 18700 34800 4
N 18700 37000 18700 37300 4
N 14200 34900 13800 34900 4
C 15400 29800 1 0 0 lm324-1.sym
{
T 16225 29950 5 8 0 0 0 0 1
device=LM324
T 15400 29800 5 10 0 0 0 0 1
slot=3
T 15400 29800 5 10 0 0 0 0 1
footprint=DIP16
T 15600 30700 5 10 1 1 0 0 1
refdes=U5
}
C 11800 33400 1 180 0 resistor-2.sym
{
T 11400 33050 5 10 0 0 180 0 1
device=RESISTOR
T 11800 33400 5 10 0 0 0 0 1
footprint=0.125W_Carbon_Resistor
T 11100 33500 5 10 1 1 0 0 1
refdes=R9
T 11100 33000 5 10 1 1 0 0 1
value=10K
}
C 14300 30100 1 90 0 resistor-2.sym
{
T 13950 30500 5 10 0 0 90 0 1
device=RESISTOR
T 14300 30100 5 10 0 0 0 0 1
footprint=0.125W_Carbon_Resistor
T 14700 30700 5 10 1 1 180 0 1
refdes=R11
T 14700 30500 5 10 1 1 180 0 1
value=10K
}
C 11000 29200 1 0 0 capacitor-1.sym
{
T 11200 29900 5 10 0 0 0 0 1
device=CAPACITOR
T 11200 30100 5 10 0 0 0 0 1
symversion=0.1
T 11000 29200 5 10 0 0 0 0 1
footprint=CK06_type_capacitor
T 11300 29700 5 10 1 1 0 0 1
refdes=C3
}
N 9900 31600 9100 31600 4
N 9100 29400 9100 31600 4
N 9100 29400 11000 29400 4
N 13400 32200 14800 32200 4
N 14800 29400 14800 32200 4
N 11900 29400 14800 29400 4
N 13400 31900 14200 31900 4
N 14200 31900 14200 31000 4
N 13400 31000 13800 31000 4
N 13400 30700 13800 30700 4
N 13400 30400 13800 30400 4
N 13400 30100 13800 30100 4
N 9900 31300 9500 31300 4
N 9500 29000 9500 32200 4
N 9900 32200 9500 32200 4
N 13800 29000 13800 31000 4
N 14200 29800 14200 30100 4
C 13300 33400 1 180 0 resistor-2.sym
{
T 12900 33050 5 10 0 0 180 0 1
device=RESISTOR
T 13300 33400 5 10 0 0 0 0 1
footprint=0.125W_Carbon_Resistor
T 12600 33500 5 10 1 1 0 0 1
refdes=R10
T 12600 33000 5 10 1 1 0 0 1
value=10K
}
N 13300 33300 14000 33300 4
N 14000 33300 14000 31600 4
N 14000 31600 13400 31600 4
N 11800 33300 12400 33300 4
N 9900 31900 9700 31900 4
N 10900 33300 9700 33300 4
N 15400 30000 15300 30000 4
N 15300 30000 15300 29400 4
N 15300 29400 16800 29400 4
N 16800 29400 16800 30200 4
C 18900 31000 1 90 0 diode-1.sym
{
T 18300 31400 5 10 0 0 90 0 1
device=DIODE
T 18900 31000 5 10 0 0 0 0 1
footprint=DIODE_LAY 400
T 19300 31500 5 10 1 1 180 0 1
refdes=D3
}
C 17900 30300 1 180 0 resistor-2.sym
{
T 17500 29950 5 10 0 0 180 0 1
device=RESISTOR
T 17900 30300 5 10 0 0 0 0 1
footprint=0.125W_Carbon_Resistor
T 17200 30400 5 10 1 1 0 0 1
refdes=R12
T 17200 29900 5 10 1 1 0 0 1
value=1.21K
}
N 16400 30200 17000 30200 4
C 7900 32500 1 270 0 voltage-3.sym
{
T 8600 32300 5 8 0 0 270 0 1
device=VOLTAGE_SOURCE
T 7900 32500 5 10 0 0 0 0 1
footprint=MTA_156 2
T 7500 32000 5 10 1 1 0 0 1
refdes=V1
}
N 9700 31900 9700 33300 4
N 15400 30400 15300 30400 4
N 15300 30400 15300 32900 4
N 15300 32900 9700 32900 4
N 12100 33300 12100 33800 4
N 8100 33800 15900 33800 4
N 8100 33800 8100 32500 4
N 15900 33800 15900 30600 4
N 15900 32200 18700 32200 4
N 8100 31600 8100 29000 4
N 15900 29800 15900 29000 4
N 13400 31300 14500 31300 4
N 14500 31300 14500 33800 4
N 17900 30200 18200 30200 4
N 18700 30700 18700 31000 4
N 5800 29000 18700 29000 4
N 18700 29000 18700 29700 4
N 18700 31900 18700 32200 4
N 14200 29800 13800 29800 4
N 3300 39600 3300 41200 4
N 3300 41200 9900 41200 4
N 9900 40900 6900 40900 4
N 6900 40900 6900 39600 4
N 6900 39600 5500 39600 4
N 9900 40600 7200 40600 4
N 7200 40600 7200 39300 4
N 7200 39300 5500 39300 4
N 9900 40300 7400 40300 4
N 7400 39000 7400 40300 4
N 5500 39000 7400 39000 4
N 5500 38700 7400 38700 4
N 7400 36100 7400 38700 4
N 7400 36100 9900 36100 4
N 5500 38400 7200 38400 4
N 7200 38400 7200 35800 4
N 7200 35800 9900 35800 4
N 5500 38100 7000 38100 4
N 7000 38100 7000 35500 4
N 7000 35500 9900 35500 4
N 5500 37800 6800 37800 4
N 6800 37800 6800 35200 4
N 6800 35200 9900 35200 4
N 5500 37500 6600 37500 4
N 6600 31000 6600 37500 4
N 6600 31000 9900 31000 4
N 5500 37200 6400 37200 4
N 6400 37200 6400 30700 4
N 6400 30700 9900 30700 4
N 9900 30400 6200 30400 4
N 6200 30400 6200 36900 4
N 6200 36900 5500 36900 4
N 5500 36600 6000 36600 4
N 6000 36600 6000 30100 4
N 6000 30100 9900 30100 4
N 5500 36300 5800 36300 4
N 5800 36300 5800 29000 4
N 5800 34300 3300 34300 4
N 3300 34300 3300 35700 4
N 3300 39600 3600 39600 4
N 3600 35700 3300 35700 4
C 3600 34700 1 0 0 EMBEDDEDArduino-micro.sym
[
B 3900 34700 1300 5100 3 0 0 0 -1 -1 0 -1 -1 -1 -1 -1
P 5500 39600 5200 39600 1 0 0
{
T 5500 39600 5 10 0 1 0 0 1
pintype=io
T 5145 39595 9 10 1 1 0 6 1
pinlabel=12
T 5295 39645 5 10 1 1 0 0 1
pinnumber=18
T 5500 39600 5 10 0 1 0 0 1
pinseq=18
}
P 5500 39300 5200 39300 1 0 0
{
T 5500 39300 5 10 0 1 0 0 1
pintype=io
T 5145 39295 9 10 1 1 0 6 1
pinlabel=11
T 5295 39345 5 10 1 1 0 0 1
pinnumber=19
T 5500 39300 5 10 0 1 0 0 1
pinseq=19
}
P 5500 39000 5200 39000 1 0 0
{
T 5500 39000 5 10 0 1 0 0 1
pintype=io
T 5145 38995 9 10 1 1 0 6 1
pinlabel=10
T 5295 39045 5 10 1 1 0 0 1
pinnumber=20
T 5500 39000 5 10 0 1 0 0 1
pinseq=20
}
P 5500 38700 5200 38700 1 0 0
{
T 5500 38700 5 10 0 1 0 0 1
pintype=io
T 5145 38695 9 10 1 1 0 6 1
pinlabel=9
T 5295 38745 5 10 1 1 0 0 1
pinnumber=21
T 5500 38700 5 10 0 1 0 0 1
pinseq=21
}
P 5500 38400 5200 38400 1 0 0
{
T 5500 38400 5 10 0 1 0 0 1
pintype=io
T 5145 38395 9 10 1 1 0 6 1
pinlabel=8
T 5295 38445 5 10 1 1 0 0 1
pinnumber=22
T 5500 38400 5 10 0 1 0 0 1
pinseq=22
}
P 5500 38100 5200 38100 1 0 0
{
T 5500 38100 5 10 0 1 0 0 1
pintype=io
T 5145 38095 9 10 1 1 0 6 1
pinlabel=7
T 5295 38145 5 10 1 1 0 0 1
pinnumber=23
T 5500 38100 5 10 0 1 0 0 1
pinseq=23
}
P 5500 37800 5200 37800 1 0 0
{
T 5500 37800 5 10 0 1 0 0 1
pintype=io
T 5145 37795 9 10 1 1 0 6 1
pinlabel=6
T 5295 37845 5 10 1 1 0 0 1
pinnumber=24
T 5500 37800 5 10 0 1 0 0 1
pinseq=24
}
P 5500 37500 5200 37500 1 0 0
{
T 5500 37500 5 10 0 1 0 0 1
pintype=io
T 5145 37495 9 10 1 1 0 6 1
pinlabel=5
T 5295 37545 5 10 1 1 0 0 1
pinnumber=25
T 5500 37500 5 10 0 1 0 0 1
pinseq=25
}
P 5500 37200 5200 37200 1 0 0
{
T 5500 37200 5 10 0 1 0 0 1
pintype=io
T 5145 37195 9 10 1 1 0 6 1
pinlabel=4
T 5295 37245 5 10 1 1 0 0 1
pinnumber=26
T 5500 37200 5 10 0 1 0 0 1
pinseq=26
}
P 5500 36900 5200 36900 1 0 0
{
T 5500 36900 5 10 0 1 0 0 1
pintype=io
T 5145 36895 9 10 1 1 0 6 1
pinlabel=3
T 5295 36945 5 10 1 1 0 0 1
pinnumber=27
T 5500 36900 5 10 0 1 0 0 1
pinseq=27
}
P 5500 36600 5200 36600 1 0 0
{
T 5500 36600 5 10 0 1 0 0 1
pintype=io
T 5145 36595 9 10 1 1 0 6 1
pinlabel=2
T 5295 36645 5 10 1 1 0 0 1
pinnumber=28
T 5500 36600 5 10 0 1 0 0 1
pinseq=28
}
P 5500 36300 5200 36300 1 0 0
{
T 5500 36300 5 10 0 1 0 0 1
pintype=pwr
T 5145 36295 9 10 1 1 0 6 1
pinlabel=GND
T 5295 36345 5 10 1 1 0 0 1
pinnumber=29
T 5500 36300 5 10 0 1 0 0 1
pinseq=29
}
P 5500 36000 5200 36000 1 0 0
{
T 5500 36000 5 10 0 1 0 0 1
pintype=in
T 5145 35995 9 10 1 1 0 6 1
pinlabel=RS
T 5295 36045 5 10 1 1 0 0 1
pinnumber=30
T 5500 36000 5 10 0 1 0 0 1
pinseq=30
}
P 5500 35700 5200 35700 1 0 0
{
T 5500 35700 5 10 0 1 0 0 1
pintype=io
T 5145 35695 9 10 1 1 0 6 1
pinlabel=RX
T 5295 35745 5 10 1 1 0 0 1
pinnumber=31
T 5500 35700 5 10 0 1 0 0 1
pinseq=31
}
P 5500 35400 5200 35400 1 0 0
{
T 5500 35400 5 10 0 1 0 0 1
pintype=io
T 5145 35395 9 10 1 1 0 6 1
pinlabel=TX
T 5295 35445 5 10 1 1 0 0 1
pinnumber=32
T 5500 35400 5 10 0 1 0 0 1
pinseq=32
}
P 5500 35100 5200 35100 1 0 0
{
T 5500 35100 5 10 0 1 0 0 1
pintype=io
T 5145 35095 9 10 1 1 0 6 1
pinlabel=SS
T 5295 35145 5 10 1 1 0 0 1
pinnumber=33
T 5500 35100 5 10 0 1 0 0 1
pinseq=33
}
P 5500 34800 5200 34800 1 0 0
{
T 5500 34800 5 10 0 1 0 0 1
pintype=io
T 5145 34795 9 10 1 1 0 6 1
pinlabel=MO
T 5295 34845 5 10 1 1 0 0 1
pinnumber=34
T 5500 34800 5 10 0 1 0 0 1
pinseq=34
}
P 3600 39600 3900 39600 1 0 0
{
T 3600 39600 5 10 0 1 0 0 1
pintype=io
T 3955 39595 9 10 1 1 0 0 1
pinlabel=13
T 3805 39645 5 10 1 1 0 6 1
pinnumber=1
T 3600 39600 5 10 0 1 0 0 1
pinseq=1
}
P 3600 39300 3900 39300 1 0 0
{
T 3600 39300 5 10 0 1 0 0 1
pintype=pwr
T 3955 39295 9 10 1 1 0 0 1
pinlabel=3V
T 3805 39345 5 10 1 1 0 6 1
pinnumber=2
T 3600 39300 5 10 0 1 0 0 1
pinseq=2
}
P 3600 39000 3900 39000 1 0 0
{
T 3600 39000 5 10 0 1 0 0 1
pintype=io
T 3955 38995 9 10 1 1 0 0 1
pinlabel=EF
T 3805 39045 5 10 1 1 0 6 1
pinnumber=3
T 3600 39000 5 10 0 1 0 0 1
pinseq=3
}
P 3600 38700 3900 38700 1 0 0
{
T 3600 38700 5 10 0 1 0 0 1
pintype=io
T 3955 38695 9 10 1 1 0 0 1
pinlabel=A0
T 3805 38745 5 10 1 1 0 6 1
pinnumber=4
T 3600 38700 5 10 0 1 0 0 1
pinseq=4
}
P 3600 38400 3900 38400 1 0 0
{
T 3600 38400 5 10 0 1 0 0 1
pintype=io
T 3955 38395 9 10 1 1 0 0 1
pinlabel=A1
T 3805 38445 5 10 1 1 0 6 1
pinnumber=5
T 3600 38400 5 10 0 1 0 0 1
pinseq=5
}
P 3600 38100 3900 38100 1 0 0
{
T 3600 38100 5 10 0 1 0 0 1
pintype=io
T 3955 38095 9 10 1 1 0 0 1
pinlabel=A2
T 3805 38145 5 10 1 1 0 6 1
pinnumber=6
T 3600 38100 5 10 0 1 0 0 1
pinseq=6
}
P 3600 37800 3900 37800 1 0 0
{
T 3600 37800 5 10 0 1 0 0 1
pintype=io
T 3955 37795 9 10 1 1 0 0 1
pinlabel=A3
T 3805 37845 5 10 1 1 0 6 1
pinnumber=7
T 3600 37800 5 10 0 1 0 0 1
pinseq=7
}
P 3600 37500 3900 37500 1 0 0
{
T 3600 37500 5 10 0 1 0 0 1
pintype=io
T 3955 37495 9 10 1 1 0 0 1
pinlabel=A4
T 3805 37545 5 10 1 1 0 6 1
pinnumber=8
T 3600 37500 5 10 0 1 0 0 1
pinseq=8
}
P 3600 37200 3900 37200 1 0 0
{
T 3600 37200 5 10 0 1 0 0 1
pintype=io
T 3955 37195 9 10 1 1 0 0 1
pinlabel=A5
T 3805 37245 5 10 1 1 0 6 1
pinnumber=9
T 3600 37200 5 10 0 1 0 0 1
pinseq=9
}
P 3600 36900 3900 36900 1 0 0
{
T 3805 36945 5 10 1 1 0 6 1
pinnumber=10
T 3600 36900 5 10 0 1 0 0 1
pinseq=10
}
P 3600 36600 3900 36600 1 0 0
{
T 3805 36645 5 10 1 1 0 6 1
pinnumber=11
T 3600 36600 5 10 0 1 0 0 1
pinseq=11
}
P 3600 36300 3900 36300 1 0 0
{
T 3600 36300 5 10 0 1 0 0 1
pintype=pwr
T 3955 36295 9 10 1 1 0 0 1
pinlabel=5V
T 3805 36345 5 10 1 1 0 6 1
pinnumber=12
T 3600 36300 5 10 0 1 0 0 1
pinseq=12
}
P 3600 36000 3900 36000 1 0 0
{
T 3600 36000 5 10 0 1 0 0 1
pintype=io
T 3955 35995 9 10 1 1 0 0 1
pinlabel=RS
T 3805 36045 5 10 1 1 0 6 1
pinnumber=13
T 3600 36000 5 10 0 1 0 0 1
pinseq=13
}
P 3600 35700 3900 35700 1 0 0
{
T 3600 35700 5 10 0 1 0 0 1
pintype=pwr
T 3955 35695 9 10 1 1 0 0 1
pinlabel=GND
T 3805 35745 5 10 1 1 0 6 1
pinnumber=14
T 3600 35700 5 10 0 1 0 0 1
pinseq=14
}
P 3600 35400 3900 35400 1 0 0
{
T 3600 35400 5 10 0 1 0 0 1
pintype=io
T 3955 35395 9 10 1 1 0 0 1
pinlabel=VI
T 3805 35445 5 10 1 1 0 6 1
pinnumber=15
T 3600 35400 5 10 0 1 0 0 1
pinseq=15
}
P 3600 35100 3900 35100 1 0 0
{
T 3600 35100 5 10 0 1 0 0 1
pintype=io
T 3955 35095 9 10 1 1 0 0 1
pinlabel=MI
T 3805 35145 5 10 1 1 0 6 1
pinnumber=16
T 3600 35100 5 10 0 1 0 0 1
pinseq=16
}
P 3600 34800 3900 34800 1 0 0
{
T 3600 34800 5 10 0 1 0 0 1
pintype=io
T 3955 34795 9 10 1 1 0 0 1
pinlabel=SCK
T 3805 34845 5 10 1 1 0 6 1
pinnumber=17
T 3600 34800 5 10 0 1 0 0 1
pinseq=17
}
T 3895 40500 8 10 0 0 0 0 1
device=ARD-MICRO
T 3895 40100 8 10 0 1 0 0 1
refdes=U?
T 3900 39900 9 10 1 0 0 0 1
ARD-MICRO
T 3895 40300 8 10 0 0 0 0 1
footprint=Arduino-micro
]
{
T 3895 40500 5 10 0 0 0 0 1
device=ARD-MICRO
T 3895 40100 5 10 1 1 0 0 1
refdes=U1
T 3895 40300 5 10 0 0 0 0 1
footprint=Arduino-micro
}
C 9900 40200 1 0 0 EMBEDDEDDAC0800-1.sym
[
B 10200 40200 2900 2400 3 0 0 0 -1 -1 0 -1 -1 -1 -1 -1
P 9900 42400 10200 42400 1 0 0
{
T 10255 42395 9 10 1 1 0 0 1
pinlabel=THRSH CTRL VLC
T 10105 42445 5 10 1 1 0 6 1
pinnumber=1
T 9900 42400 5 10 0 1 0 0 1
pinseq=1
T 9900 42400 5 10 0 1 0 0 1
pintype=in
}
P 9900 42100 10200 42100 1 0 0
{
T 10255 42095 9 10 1 1 0 0 1
pinlabel=NOT IOUT
T 10105 42145 5 10 1 1 0 6 1
pinnumber=2
T 9900 42100 5 10 0 1 0 0 1
pinseq=2
T 9900 42100 5 10 0 1 0 0 1
pintype=out
}
P 9900 41800 10200 41800 1 0 0
{
T 10255 41795 9 10 1 1 0 0 1
pinlabel=V-
T 10105 41845 5 10 1 1 0 6 1
pinnumber=3
T 9900 41800 5 10 0 1 0 0 1
pinseq=3
T 9900 41800 5 10 0 1 0 0 1
pintype=pwr
}
P 9900 41500 10200 41500 1 0 0
{
T 10255 41495 9 10 1 1 0 0 1
pinlabel=IOUT
T 10105 41545 5 10 1 1 0 6 1
pinnumber=4
T 9900 41500 5 10 0 1 0 0 1
pinseq=4
T 9900 41500 5 10 0 1 0 0 1
pintype=out
}
P 9900 41200 10200 41200 1 0 0
{
T 10255 41195 9 10 1 1 0 0 1
pinlabel=B1
T 10105 41245 5 10 1 1 0 6 1
pinnumber=5
T 9900 41200 5 10 0 1 0 0 1
pinseq=5
T 9900 41200 5 10 0 1 0 0 1
pintype=in
}
P 9900 40900 10200 40900 1 0 0
{
T 10255 40895 9 10 1 1 0 0 1
pinlabel=B2
T 10105 40945 5 10 1 1 0 6 1
pinnumber=6
T 9900 40900 5 10 0 1 0 0 1
pinseq=6
T 9900 40900 5 10 0 1 0 0 1
pintype=in
}
P 9900 40600 10200 40600 1 0 0
{
T 10255 40595 9 10 1 1 0 0 1
pinlabel=B3
T 10105 40645 5 10 1 1 0 6 1
pinnumber=7
T 9900 40600 5 10 0 1 0 0 1
pinseq=7
T 9900 40600 5 10 0 1 0 0 1
pintype=in
}
P 9900 40300 10200 40300 1 0 0
{
T 10255 40295 9 10 1 1 0 0 1
pinlabel=B4
T 10105 40345 5 10 1 1 0 6 1
pinnumber=8
T 9900 40300 5 10 0 1 0 0 1
pinseq=8
T 9900 40300 5 10 0 1 0 0 1
pintype=in
}
P 13400 42400 13100 42400 1 0 0
{
T 13045 42395 9 10 1 1 0 6 1
pinlabel=COMP
T 13195 42445 5 10 1 1 0 0 1
pinnumber=16
T 13400 42400 5 10 0 1 0 0 1
pinseq=16
T 13400 42400 5 10 0 1 0 0 1
pintype=io
}
P 13400 42100 13100 42100 1 0 0
{
T 13045 42095 9 10 1 1 0 6 1
pinlabel=VREF(-)
T 13195 42145 5 10 1 1 0 0 1
pinnumber=15
T 13400 42100 5 10 0 1 0 0 1
pinseq=15
T 13400 42100 5 10 0 1 0 0 1
pintype=io
}
P 13400 41800 13100 41800 1 0 0
{
T 13045 41795 9 10 1 1 0 6 1
pinlabel=VREF(+)
T 13195 41845 5 10 1 1 0 0 1
pinnumber=14
T 13400 41800 5 10 0 1 0 0 1
pinseq=14
T 13400 41800 5 10 0 1 0 0 1
pintype=io
}
P 13400 41500 13100 41500 1 0 0
{
T 13045 41495 9 10 1 1 0 6 1
pinlabel=V+
T 13195 41545 5 10 1 1 0 0 1
pinnumber=13
T 13400 41500 5 10 0 1 0 0 1
pinseq=13
T 13400 41500 5 10 0 1 0 0 1
pintype=pwr
}
P 13400 41200 13100 41200 1 0 0
{
T 13045 41195 9 10 1 1 0 6 1
pinlabel=B8
T 13195 41245 5 10 1 1 0 0 1
pinnumber=12
T 13400 41200 5 10 0 1 0 0 1
pinseq=12
T 13400 41200 5 10 0 1 0 0 1
pintype=in
}
P 13400 40900 13100 40900 1 0 0
{
T 13045 40895 9 10 1 1 0 6 1
pinlabel=B7
T 13195 40945 5 10 1 1 0 0 1
pinnumber=11
T 13400 40900 5 10 0 1 0 0 1
pinseq=11
T 13400 40900 5 10 0 1 0 0 1
pintype=in
}
P 13400 40600 13100 40600 1 0 0
{
T 13045 40595 9 10 1 1 0 6 1
pinlabel=B6
T 13195 40645 5 10 1 1 0 0 1
pinnumber=10
T 13400 40600 5 10 0 1 0 0 1
pinseq=10
T 13400 40600 5 10 0 1 0 0 1
pintype=in
}
P 13400 40300 13100 40300 1 0 0
{
T 13045 40295 9 10 1 1 0 6 1
pinlabel=B5
T 13195 40345 5 10 1 1 0 0 1
pinnumber=9
T 13400 40300 5 10 0 1 0 0 1
pinseq=9
T 13400 40300 5 10 0 1 0 0 1
pintype=in
}
T 10195 42900 2 10 0 1 0 0 1
refdes=U?
T 10200 42700 9 10 1 0 0 0 1
DAC0800
T 10195 43100 8 10 0 0 0 0 1
footprint=DIP16
T 10195 43300 8 10 0 0 0 0 1
device=DAC0800
]
{
T 10195 42900 5 10 1 1 0 0 1
refdes=U2
T 10195 43100 5 10 0 0 0 0 1
footprint=DIP16
T 10195 43300 5 10 0 0 0 0 1
device=DAC0800
}
C 9900 35100 1 0 0 EMBEDDEDDAC0800-1.sym
[
B 10200 35100 2900 2400 3 0 0 0 -1 -1 0 -1 -1 -1 -1 -1
P 9900 37300 10200 37300 1 0 0
{
T 10255 37295 9 10 1 1 0 0 1
pinlabel=THRSH CTRL VLC
T 10105 37345 5 10 1 1 0 6 1
pinnumber=1
T 9900 37300 5 10 0 1 0 0 1
pinseq=1
T 9900 37300 5 10 0 1 0 0 1
pintype=in
}
P 9900 37000 10200 37000 1 0 0
{
T 10255 36995 9 10 1 1 0 0 1
pinlabel=NOT IOUT
T 10105 37045 5 10 1 1 0 6 1
pinnumber=2
T 9900 37000 5 10 0 1 0 0 1
pinseq=2
T 9900 37000 5 10 0 1 0 0 1
pintype=out
}
P 9900 36700 10200 36700 1 0 0
{
T 10255 36695 9 10 1 1 0 0 1
pinlabel=V-
T 10105 36745 5 10 1 1 0 6 1
pinnumber=3
T 9900 36700 5 10 0 1 0 0 1
pinseq=3
T 9900 36700 5 10 0 1 0 0 1
pintype=pwr
}
P 9900 36400 10200 36400 1 0 0
{
T 10255 36395 9 10 1 1 0 0 1
pinlabel=IOUT
T 10105 36445 5 10 1 1 0 6 1
pinnumber=4
T 9900 36400 5 10 0 1 0 0 1
pinseq=4
T 9900 36400 5 10 0 1 0 0 1
pintype=out
}
P 9900 36100 10200 36100 1 0 0
{
T 10255 36095 9 10 1 1 0 0 1
pinlabel=B1
T 10105 36145 5 10 1 1 0 6 1
pinnumber=5
T 9900 36100 5 10 0 1 0 0 1
pinseq=5
T 9900 36100 5 10 0 1 0 0 1
pintype=in
}
P 9900 35800 10200 35800 1 0 0
{
T 10255 35795 9 10 1 1 0 0 1
pinlabel=B2
T 10105 35845 5 10 1 1 0 6 1
pinnumber=6
T 9900 35800 5 10 0 1 0 0 1
pinseq=6
T 9900 35800 5 10 0 1 0 0 1
pintype=in
}
P 9900 35500 10200 35500 1 0 0
{
T 10255 35495 9 10 1 1 0 0 1
pinlabel=B3
T 10105 35545 5 10 1 1 0 6 1
pinnumber=7
T 9900 35500 5 10 0 1 0 0 1
pinseq=7
T 9900 35500 5 10 0 1 0 0 1
pintype=in
}
P 9900 35200 10200 35200 1 0 0
{
T 10255 35195 9 10 1 1 0 0 1
pinlabel=B4
T 10105 35245 5 10 1 1 0 6 1
pinnumber=8
T 9900 35200 5 10 0 1 0 0 1
pinseq=8
T 9900 35200 5 10 0 1 0 0 1
pintype=in
}
P 13400 37300 13100 37300 1 0 0
{
T 13045 37295 9 10 1 1 0 6 1
pinlabel=COMP
T 13195 37345 5 10 1 1 0 0 1
pinnumber=16
T 13400 37300 5 10 0 1 0 0 1
pinseq=16
T 13400 37300 5 10 0 1 0 0 1
pintype=io
}
P 13400 37000 13100 37000 1 0 0
{
T 13045 36995 9 10 1 1 0 6 1
pinlabel=VREF(-)
T 13195 37045 5 10 1 1 0 0 1
pinnumber=15
T 13400 37000 5 10 0 1 0 0 1
pinseq=15
T 13400 37000 5 10 0 1 0 0 1
pintype=io
}
P 13400 36700 13100 36700 1 0 0
{
T 13045 36695 9 10 1 1 0 6 1
pinlabel=VREF(+)
T 13195 36745 5 10 1 1 0 0 1
pinnumber=14
T 13400 36700 5 10 0 1 0 0 1
pinseq=14
T 13400 36700 5 10 0 1 0 0 1
pintype=io
}
P 13400 36400 13100 36400 1 0 0
{
T 13045 36395 9 10 1 1 0 6 1
pinlabel=V+
T 13195 36445 5 10 1 1 0 0 1
pinnumber=13
T 13400 36400 5 10 0 1 0 0 1
pinseq=13
T 13400 36400 5 10 0 1 0 0 1
pintype=pwr
}
P 13400 36100 13100 36100 1 0 0
{
T 13045 36095 9 10 1 1 0 6 1
pinlabel=B8
T 13195 36145 5 10 1 1 0 0 1
pinnumber=12
T 13400 36100 5 10 0 1 0 0 1
pinseq=12
T 13400 36100 5 10 0 1 0 0 1
pintype=in
}
P 13400 35800 13100 35800 1 0 0
{
T 13045 35795 9 10 1 1 0 6 1
pinlabel=B7
T 13195 35845 5 10 1 1 0 0 1
pinnumber=11
T 13400 35800 5 10 0 1 0 0 1
pinseq=11
T 13400 35800 5 10 0 1 0 0 1
pintype=in
}
P 13400 35500 13100 35500 1 0 0
{
T 13045 35495 9 10 1 1 0 6 1
pinlabel=B6
T 13195 35545 5 10 1 1 0 0 1
pinnumber=10
T 13400 35500 5 10 0 1 0 0 1
pinseq=10
T 13400 35500 5 10 0 1 0 0 1
pintype=in
}
P 13400 35200 13100 35200 1 0 0
{
T 13045 35195 9 10 1 1 0 6 1
pinlabel=B5
T 13195 35245 5 10 1 1 0 0 1
pinnumber=9
T 13400 35200 5 10 0 1 0 0 1
pinseq=9
T 13400 35200 5 10 0 1 0 0 1
pintype=in
}
T 10195 37800 2 10 0 1 0 0 1
refdes=U?
T 10200 37600 9 10 1 0 0 0 1
DAC0800
T 10195 38000 8 10 0 0 0 0 1
footprint=DIP16
T 10195 38200 8 10 0 0 0 0 1
device=DAC0800
]
{
T 10195 37800 5 10 1 1 0 0 1
refdes=U3
T 10195 38000 5 10 0 0 0 0 1
footprint=DIP16
T 10195 38200 5 10 0 0 0 0 1
device=DAC0800
}
C 9900 30000 1 0 0 EMBEDDEDDAC0800-1.sym
[
B 10200 30000 2900 2400 3 0 0 0 -1 -1 0 -1 -1 -1 -1 -1
P 9900 32200 10200 32200 1 0 0
{
T 10255 32195 9 10 1 1 0 0 1
pinlabel=THRSH CTRL VLC
T 10105 32245 5 10 1 1 0 6 1
pinnumber=1
T 9900 32200 5 10 0 1 0 0 1
pinseq=1
T 9900 32200 5 10 0 1 0 0 1
pintype=in
}
P 9900 31900 10200 31900 1 0 0
{
T 10255 31895 9 10 1 1 0 0 1
pinlabel=NOT IOUT
T 10105 31945 5 10 1 1 0 6 1
pinnumber=2
T 9900 31900 5 10 0 1 0 0 1
pinseq=2
T 9900 31900 5 10 0 1 0 0 1
pintype=out
}
P 9900 31600 10200 31600 1 0 0
{
T 10255 31595 9 10 1 1 0 0 1
pinlabel=V-
T 10105 31645 5 10 1 1 0 6 1
pinnumber=3
T 9900 31600 5 10 0 1 0 0 1
pinseq=3
T 9900 31600 5 10 0 1 0 0 1
pintype=pwr
}
P 9900 31300 10200 31300 1 0 0
{
T 10255 31295 9 10 1 1 0 0 1
pinlabel=IOUT
T 10105 31345 5 10 1 1 0 6 1
pinnumber=4
T 9900 31300 5 10 0 1 0 0 1
pinseq=4
T 9900 31300 5 10 0 1 0 0 1
pintype=out
}
P 9900 31000 10200 31000 1 0 0
{
T 10255 30995 9 10 1 1 0 0 1
pinlabel=B1
T 10105 31045 5 10 1 1 0 6 1
pinnumber=5
T 9900 31000 5 10 0 1 0 0 1
pinseq=5
T 9900 31000 5 10 0 1 0 0 1
pintype=in
}
P 9900 30700 10200 30700 1 0 0
{
T 10255 30695 9 10 1 1 0 0 1
pinlabel=B2
T 10105 30745 5 10 1 1 0 6 1
pinnumber=6
T 9900 30700 5 10 0 1 0 0 1
pinseq=6
T 9900 30700 5 10 0 1 0 0 1
pintype=in
}
P 9900 30400 10200 30400 1 0 0
{
T 10255 30395 9 10 1 1 0 0 1
pinlabel=B3
T 10105 30445 5 10 1 1 0 6 1
pinnumber=7
T 9900 30400 5 10 0 1 0 0 1
pinseq=7
T 9900 30400 5 10 0 1 0 0 1
pintype=in
}
P 9900 30100 10200 30100 1 0 0
{
T 10255 30095 9 10 1 1 0 0 1
pinlabel=B4
T 10105 30145 5 10 1 1 0 6 1
pinnumber=8
T 9900 30100 5 10 0 1 0 0 1
pinseq=8
T 9900 30100 5 10 0 1 0 0 1
pintype=in
}
P 13400 32200 13100 32200 1 0 0
{
T 13045 32195 9 10 1 1 0 6 1
pinlabel=COMP
T 13195 32245 5 10 1 1 0 0 1
pinnumber=16
T 13400 32200 5 10 0 1 0 0 1
pinseq=16
T 13400 32200 5 10 0 1 0 0 1
pintype=io
}
P 13400 31900 13100 31900 1 0 0
{
T 13045 31895 9 10 1 1 0 6 1
pinlabel=VREF(-)
T 13195 31945 5 10 1 1 0 0 1
pinnumber=15
T 13400 31900 5 10 0 1 0 0 1
pinseq=15
T 13400 31900 5 10 0 1 0 0 1
pintype=io
}
P 13400 31600 13100 31600 1 0 0
{
T 13045 31595 9 10 1 1 0 6 1
pinlabel=VREF(+)
T 13195 31645 5 10 1 1 0 0 1
pinnumber=14
T 13400 31600 5 10 0 1 0 0 1
pinseq=14
T 13400 31600 5 10 0 1 0 0 1
pintype=io
}
P 13400 31300 13100 31300 1 0 0
{
T 13045 31295 9 10 1 1 0 6 1
pinlabel=V+
T 13195 31345 5 10 1 1 0 0 1
pinnumber=13
T 13400 31300 5 10 0 1 0 0 1
pinseq=13
T 13400 31300 5 10 0 1 0 0 1
pintype=pwr
}
P 13400 31000 13100 31000 1 0 0
{
T 13045 30995 9 10 1 1 0 6 1
pinlabel=B8
T 13195 31045 5 10 1 1 0 0 1
pinnumber=12
T 13400 31000 5 10 0 1 0 0 1
pinseq=12
T 13400 31000 5 10 0 1 0 0 1
pintype=in
}
P 13400 30700 13100 30700 1 0 0
{
T 13045 30695 9 10 1 1 0 6 1
pinlabel=B7
T 13195 30745 5 10 1 1 0 0 1
pinnumber=11
T 13400 30700 5 10 0 1 0 0 1
pinseq=11
T 13400 30700 5 10 0 1 0 0 1
pintype=in
}
P 13400 30400 13100 30400 1 0 0
{
T 13045 30395 9 10 1 1 0 6 1
pinlabel=B6
T 13195 30445 5 10 1 1 0 0 1
pinnumber=10
T 13400 30400 5 10 0 1 0 0 1
pinseq=10
T 13400 30400 5 10 0 1 0 0 1
pintype=in
}
P 13400 30100 13100 30100 1 0 0
{
T 13045 30095 9 10 1 1 0 6 1
pinlabel=B5
T 13195 30145 5 10 1 1 0 0 1
pinnumber=9
T 13400 30100 5 10 0 1 0 0 1
pinseq=9
T 13400 30100 5 10 0 1 0 0 1
pintype=in
}
T 10195 32700 2 10 0 1 0 0 1
refdes=U?
T 10200 32500 9 10 1 0 0 0 1
DAC0800
T 10195 32900 8 10 0 0 0 0 1
footprint=DIP16
T 10195 33100 8 10 0 0 0 0 1
device=DAC0800
]
{
T 10195 32700 5 10 1 1 0 0 1
refdes=U4
T 10195 32900 5 10 0 0 0 0 1
footprint=DIP16
T 10195 33100 5 10 0 0 0 0 1
device=DAC0800
}
C 18200 39900 1 0 0 EMBEDDEDnpn-num.sym
[
L 18400 40700 18400 40100 3 0 0 0 -1 -1
P 18200 40400 18400 40400 1 0 0
{
T 18300 40450 5 6 0 1 0 0 1
pinnumber=1
T 18300 40450 5 6 0 0 0 0 1
pinseq=1
T 18300 40450 5 6 1 1 0 0 1
pinlabel=B
T 18300 40450 5 6 0 1 0 0 1
pintype=pas
}
P 18700 40900 18700 40700 1 0 0
{
T 18600 40750 5 6 0 1 0 0 1
pinnumber=2
T 18600 40750 5 6 0 0 0 0 1
pinseq=2
T 18600 40750 5 6 1 1 0 0 1
pinlabel=C
T 18600 40750 5 6 0 1 0 0 1
pintype=pas
}
P 18700 40100 18700 39900 1 0 1
{
T 18600 39950 5 6 0 1 0 0 1
pinnumber=3
T 18600 39950 5 6 0 0 0 0 1
pinseq=3
T 18600 39950 5 6 1 1 0 0 1
pinlabel=E
T 18600 39950 5 6 0 1 0 0 1
pintype=pas
}
L 18400 40550 18700 40700 3 0 0 0 -1 -1
L 18400 40250 18700 40100 3 0 0 0 -1 -1
H 3 0 0 0 -1 -1 1 -1 -1 -1 -1 -1 5
M 18603,40109
L 18701,40100
L 18631,40173
L 18625,40140
z
T 18800 40400 5 10 0 0 0 0 1
device=NPN_TRANSISTOR
T 18800 40400 8 10 0 1 0 0 1
refdes=Q?
T 19095 40195 8 10 0 0 0 0 1
footprint=TO126W
]
{
T 18800 40400 5 10 0 0 0 0 1
device=NPN_TRANSISTOR
T 18800 40400 5 10 1 1 0 0 1
refdes=Q1
T 19095 40195 5 10 0 0 0 0 1
footprint=TO126W
}
C 18200 34800 1 0 0 EMBEDDEDnpn-num.sym
[
L 18400 35600 18400 35000 3 0 0 0 -1 -1
P 18200 35300 18400 35300 1 0 0
{
T 18300 35350 5 6 0 1 0 0 1
pinnumber=1
T 18300 35350 5 6 0 0 0 0 1
pinseq=1
T 18300 35350 5 6 1 1 0 0 1
pinlabel=B
T 18300 35350 5 6 0 1 0 0 1
pintype=pas
}
P 18700 35800 18700 35600 1 0 0
{
T 18600 35650 5 6 0 1 0 0 1
pinnumber=2
T 18600 35650 5 6 0 0 0 0 1
pinseq=2
T 18600 35650 5 6 1 1 0 0 1
pinlabel=C
T 18600 35650 5 6 0 1 0 0 1
pintype=pas
}
P 18700 35000 18700 34800 1 0 1
{
T 18600 34850 5 6 0 1 0 0 1
pinnumber=3
T 18600 34850 5 6 0 0 0 0 1
pinseq=3
T 18600 34850 5 6 1 1 0 0 1
pinlabel=E
T 18600 34850 5 6 0 1 0 0 1
pintype=pas
}
L 18400 35450 18700 35600 3 0 0 0 -1 -1
L 18400 35150 18700 35000 3 0 0 0 -1 -1
H 3 0 0 0 -1 -1 1 -1 -1 -1 -1 -1 5
M 18603,35009
L 18701,35000
L 18631,35073
L 18625,35040
z
T 18800 35300 5 10 0 0 0 0 1
device=NPN_TRANSISTOR
T 18800 35300 8 10 0 1 0 0 1
refdes=Q?
T 19095 35095 8 10 0 0 0 0 1
footprint=TO126W
]
{
T 18800 35300 5 10 0 0 0 0 1
device=NPN_TRANSISTOR
T 18800 35300 5 10 1 1 0 0 1
refdes=Q2
T 19095 35095 5 10 0 0 0 0 1
footprint=TO126W
}
C 18200 29700 1 0 0 EMBEDDEDnpn-num.sym
[
L 18400 30500 18400 29900 3 0 0 0 -1 -1
P 18200 30200 18400 30200 1 0 0
{
T 18300 30250 5 6 0 1 0 0 1
pinnumber=1
T 18300 30250 5 6 0 0 0 0 1
pinseq=1
T 18300 30250 5 6 1 1 0 0 1
pinlabel=B
T 18300 30250 5 6 0 1 0 0 1
pintype=pas
}
P 18700 30700 18700 30500 1 0 0
{
T 18600 30550 5 6 0 1 0 0 1
pinnumber=2
T 18600 30550 5 6 0 0 0 0 1
pinseq=2
T 18600 30550 5 6 1 1 0 0 1
pinlabel=C
T 18600 30550 5 6 0 1 0 0 1
pintype=pas
}
P 18700 29900 18700 29700 1 0 1
{
T 18600 29750 5 6 0 1 0 0 1
pinnumber=3
T 18600 29750 5 6 0 0 0 0 1
pinseq=3
T 18600 29750 5 6 1 1 0 0 1
pinlabel=E
T 18600 29750 5 6 0 1 0 0 1
pintype=pas
}
L 18400 30350 18700 30500 3 0 0 0 -1 -1
L 18400 30050 18700 29900 3 0 0 0 -1 -1
H 3 0 0 0 -1 -1 1 -1 -1 -1 -1 -1 5
M 18603,29909
L 18701,29900
L 18631,29973
L 18625,29940
z
T 18800 30200 5 10 0 0 0 0 1
device=NPN_TRANSISTOR
T 18800 30200 8 10 0 1 0 0 1
refdes=Q?
T 19095 29995 8 10 0 0 0 0 1
footprint=TO126W
]
{
T 18800 30200 5 10 0 0 0 0 1
device=NPN_TRANSISTOR
T 18800 30200 5 10 1 1 0 0 1
refdes=Q3
T 19095 29995 5 10 0 0 0 0 1
footprint=TO126W
}
